%YAML 1.1
%TAG !u! tag:unity3d.com,2011:
--- !u!29 &1
OcclusionCullingSettings:
  m_ObjectHideFlags: 0
  serializedVersion: 2
  m_OcclusionBakeSettings:
    smallestOccluder: 5
    smallestHole: 0.25
    backfaceThreshold: 100
  m_SceneGUID: 00000000000000000000000000000000
  m_OcclusionCullingData: {fileID: 0}
--- !u!104 &2
RenderSettings:
  m_ObjectHideFlags: 0
  serializedVersion: 8
  m_Fog: 0
  m_FogColor: {r: 0.5, g: 0.5, b: 0.5, a: 1}
  m_FogMode: 3
  m_FogDensity: 0.01
  m_LinearFogStart: 0
  m_LinearFogEnd: 300
  m_AmbientSkyColor: {r: 0.212, g: 0.227, b: 0.259, a: 1}
  m_AmbientEquatorColor: {r: 0.114, g: 0.125, b: 0.133, a: 1}
  m_AmbientGroundColor: {r: 0.047, g: 0.043, b: 0.035, a: 1}
  m_AmbientIntensity: 1
  m_AmbientMode: 3
  m_SubtractiveShadowColor: {r: 0.42, g: 0.478, b: 0.627, a: 1}
  m_SkyboxMaterial: {fileID: 0}
  m_HaloStrength: 0.5
  m_FlareStrength: 1
  m_FlareFadeSpeed: 3
  m_HaloTexture: {fileID: 0}
  m_SpotCookie: {fileID: 10001, guid: 0000000000000000e000000000000000, type: 0}
  m_DefaultReflectionMode: 0
  m_DefaultReflectionResolution: 128
  m_ReflectionBounces: 1
  m_ReflectionIntensity: 1
  m_CustomReflection: {fileID: 0}
  m_Sun: {fileID: 0}
  m_IndirectSpecularColor: {r: 0, g: 0, b: 0, a: 1}
--- !u!157 &3
LightmapSettings:
  m_ObjectHideFlags: 0
  serializedVersion: 11
  m_GIWorkflowMode: 1
  m_GISettings:
    serializedVersion: 2
    m_BounceScale: 1
    m_IndirectOutputScale: 1
    m_AlbedoBoost: 1
    m_TemporalCoherenceThreshold: 1
    m_EnvironmentLightingMode: 0
    m_EnableBakedLightmaps: 0
    m_EnableRealtimeLightmaps: 0
  m_LightmapEditorSettings:
    serializedVersion: 9
    m_Resolution: 2
    m_BakeResolution: 40
    m_TextureWidth: 1024
    m_TextureHeight: 1024
    m_AO: 0
    m_AOMaxDistance: 1
    m_CompAOExponent: 1
    m_CompAOExponentDirect: 0
    m_Padding: 2
    m_LightmapParameters: {fileID: 0}
    m_LightmapsBakeMode: 1
    m_TextureCompression: 1
    m_FinalGather: 0
    m_FinalGatherFiltering: 1
    m_FinalGatherRayCount: 256
    m_ReflectionCompression: 2
    m_MixedBakeMode: 2
    m_BakeBackend: 0
    m_PVRSampling: 1
    m_PVRDirectSampleCount: 32
    m_PVRSampleCount: 500
    m_PVRBounces: 2
    m_PVRFilterTypeDirect: 0
    m_PVRFilterTypeIndirect: 0
    m_PVRFilterTypeAO: 0
    m_PVRFilteringMode: 1
    m_PVRCulling: 1
    m_PVRFilteringGaussRadiusDirect: 1
    m_PVRFilteringGaussRadiusIndirect: 5
    m_PVRFilteringGaussRadiusAO: 2
    m_PVRFilteringAtrousPositionSigmaDirect: 0.5
    m_PVRFilteringAtrousPositionSigmaIndirect: 2
    m_PVRFilteringAtrousPositionSigmaAO: 1
    m_ShowResolutionOverlay: 1
  m_LightingDataAsset: {fileID: 0}
  m_UseShadowmask: 1
--- !u!196 &4
NavMeshSettings:
  serializedVersion: 2
  m_ObjectHideFlags: 0
  m_BuildSettings:
    serializedVersion: 2
    agentTypeID: 0
    agentRadius: 0.5
    agentHeight: 2
    agentSlope: 45
    agentClimb: 0.4
    ledgeDropHeight: 0
    maxJumpAcrossDistance: 0
    minRegionArea: 2
    manualCellSize: 0
    cellSize: 0.16666667
    manualTileSize: 0
    tileSize: 256
    accuratePlacement: 0
    debug:
      m_Flags: 0
  m_NavMeshData: {fileID: 0}
--- !u!1001 &21997375
Prefab:
  m_ObjectHideFlags: 0
  serializedVersion: 2
  m_Modification:
    m_TransformParent: {fileID: 0}
    m_Modifications:
    - target: {fileID: 4307632356813398, guid: 693c706fbb622434a8f13ecbfcb0cba2, type: 2}
      propertyPath: m_LocalPosition.x
      value: -5.1
      objectReference: {fileID: 0}
    - target: {fileID: 4307632356813398, guid: 693c706fbb622434a8f13ecbfcb0cba2, type: 2}
      propertyPath: m_LocalPosition.y
      value: 5.33
      objectReference: {fileID: 0}
    - target: {fileID: 4307632356813398, guid: 693c706fbb622434a8f13ecbfcb0cba2, type: 2}
      propertyPath: m_LocalPosition.z
      value: 0
      objectReference: {fileID: 0}
    - target: {fileID: 4307632356813398, guid: 693c706fbb622434a8f13ecbfcb0cba2, type: 2}
      propertyPath: m_LocalRotation.x
      value: -0
      objectReference: {fileID: 0}
    - target: {fileID: 4307632356813398, guid: 693c706fbb622434a8f13ecbfcb0cba2, type: 2}
      propertyPath: m_LocalRotation.y
      value: -0
      objectReference: {fileID: 0}
    - target: {fileID: 4307632356813398, guid: 693c706fbb622434a8f13ecbfcb0cba2, type: 2}
      propertyPath: m_LocalRotation.z
      value: -0
      objectReference: {fileID: 0}
    - target: {fileID: 4307632356813398, guid: 693c706fbb622434a8f13ecbfcb0cba2, type: 2}
      propertyPath: m_LocalRotation.w
      value: 1
      objectReference: {fileID: 0}
    - target: {fileID: 4307632356813398, guid: 693c706fbb622434a8f13ecbfcb0cba2, type: 2}
      propertyPath: m_RootOrder
      value: 6
      objectReference: {fileID: 0}
    m_RemovedComponents: []
  m_ParentPrefab: {fileID: 100100000, guid: 693c706fbb622434a8f13ecbfcb0cba2, type: 2}
  m_IsPrefabParent: 0
--- !u!1 &291231830
GameObject:
  m_ObjectHideFlags: 0
  m_PrefabParentObject: {fileID: 0}
  m_PrefabInternal: {fileID: 0}
  serializedVersion: 5
  m_Component:
  - component: {fileID: 291231832}
  - component: {fileID: 291231831}
  m_Layer: 0
  m_Name: Background
  m_TagString: Untagged
  m_Icon: {fileID: 0}
  m_NavMeshLayer: 0
  m_StaticEditorFlags: 0
  m_IsActive: 1
--- !u!212 &291231831
SpriteRenderer:
  m_ObjectHideFlags: 0
  m_PrefabParentObject: {fileID: 0}
  m_PrefabInternal: {fileID: 0}
  m_GameObject: {fileID: 291231830}
  m_Enabled: 1
  m_CastShadows: 0
  m_ReceiveShadows: 0
  m_DynamicOccludee: 1
  m_MotionVectors: 1
  m_LightProbeUsage: 1
  m_ReflectionProbeUsage: 1
  m_Materials:
  - {fileID: 10754, guid: 0000000000000000f000000000000000, type: 0}
  m_StaticBatchInfo:
    firstSubMesh: 0
    subMeshCount: 0
  m_StaticBatchRoot: {fileID: 0}
  m_ProbeAnchor: {fileID: 0}
  m_LightProbeVolumeOverride: {fileID: 0}
  m_ScaleInLightmap: 1
  m_PreserveUVs: 0
  m_IgnoreNormalsForChartDetection: 0
  m_ImportantGI: 0
  m_StitchLightmapSeams: 0
  m_SelectedEditorRenderState: 0
  m_MinimumChartSize: 4
  m_AutoUVMaxDistance: 0.5
  m_AutoUVMaxAngle: 89
  m_LightmapParameters: {fileID: 0}
  m_SortingLayerID: 0
  m_SortingLayer: 0
  m_SortingOrder: -1
  m_Sprite: {fileID: 21300000, guid: 2e674f402b5204e44ba03e1483456de6, type: 3}
  m_Color: {r: 1, g: 1, b: 1, a: 1}
  m_FlipX: 0
  m_FlipY: 0
  m_DrawMode: 0
  m_Size: {x: 12.8, y: 7.2}
  m_AdaptiveModeThreshold: 0.5
  m_SpriteTileMode: 0
  m_WasSpriteAssigned: 1
  m_MaskInteraction: 0
--- !u!4 &291231832
Transform:
  m_ObjectHideFlags: 0
  m_PrefabParentObject: {fileID: 0}
  m_PrefabInternal: {fileID: 0}
  m_GameObject: {fileID: 291231830}
  m_LocalRotation: {x: 0, y: 0, z: 0, w: 1}
  m_LocalPosition: {x: 0, y: 0.23, z: -0.42054266}
  m_LocalScale: {x: 1.5, y: 1.5, z: 1.5}
  m_Children: []
  m_Father: {fileID: 0}
  m_RootOrder: 7
  m_LocalEulerAnglesHint: {x: 0, y: 0, z: 0}
--- !u!1001 &298334035
Prefab:
  m_ObjectHideFlags: 0
  serializedVersion: 2
  m_Modification:
    m_TransformParent: {fileID: 1301964638}
    m_Modifications:
    - target: {fileID: 224889509419977284, guid: dba0d80e56172be4f97df39ed5d3c631,
        type: 2}
      propertyPath: m_LocalPosition.x
      value: 0
      objectReference: {fileID: 0}
    - target: {fileID: 224889509419977284, guid: dba0d80e56172be4f97df39ed5d3c631,
        type: 2}
      propertyPath: m_LocalPosition.y
      value: -90
      objectReference: {fileID: 0}
    - target: {fileID: 224889509419977284, guid: dba0d80e56172be4f97df39ed5d3c631,
        type: 2}
      propertyPath: m_LocalPosition.z
      value: 0
      objectReference: {fileID: 0}
    - target: {fileID: 224889509419977284, guid: dba0d80e56172be4f97df39ed5d3c631,
        type: 2}
      propertyPath: m_LocalRotation.x
      value: 0
      objectReference: {fileID: 0}
    - target: {fileID: 224889509419977284, guid: dba0d80e56172be4f97df39ed5d3c631,
        type: 2}
      propertyPath: m_LocalRotation.y
      value: 0
      objectReference: {fileID: 0}
    - target: {fileID: 224889509419977284, guid: dba0d80e56172be4f97df39ed5d3c631,
        type: 2}
      propertyPath: m_LocalRotation.z
      value: 0
      objectReference: {fileID: 0}
    - target: {fileID: 224889509419977284, guid: dba0d80e56172be4f97df39ed5d3c631,
        type: 2}
      propertyPath: m_LocalRotation.w
      value: 1
      objectReference: {fileID: 0}
    - target: {fileID: 224889509419977284, guid: dba0d80e56172be4f97df39ed5d3c631,
        type: 2}
      propertyPath: m_RootOrder
      value: 3
      objectReference: {fileID: 0}
    - target: {fileID: 224889509419977284, guid: dba0d80e56172be4f97df39ed5d3c631,
        type: 2}
      propertyPath: m_AnchoredPosition.x
      value: 0
      objectReference: {fileID: 0}
    - target: {fileID: 224889509419977284, guid: dba0d80e56172be4f97df39ed5d3c631,
        type: 2}
      propertyPath: m_AnchoredPosition.y
      value: -90
      objectReference: {fileID: 0}
    - target: {fileID: 224889509419977284, guid: dba0d80e56172be4f97df39ed5d3c631,
        type: 2}
      propertyPath: m_SizeDelta.x
      value: 250
      objectReference: {fileID: 0}
    - target: {fileID: 224889509419977284, guid: dba0d80e56172be4f97df39ed5d3c631,
        type: 2}
      propertyPath: m_SizeDelta.y
      value: 260
      objectReference: {fileID: 0}
    - target: {fileID: 224889509419977284, guid: dba0d80e56172be4f97df39ed5d3c631,
        type: 2}
      propertyPath: m_AnchorMin.x
      value: 0.5
      objectReference: {fileID: 0}
    - target: {fileID: 224889509419977284, guid: dba0d80e56172be4f97df39ed5d3c631,
        type: 2}
      propertyPath: m_AnchorMin.y
      value: 0.5
      objectReference: {fileID: 0}
    - target: {fileID: 224889509419977284, guid: dba0d80e56172be4f97df39ed5d3c631,
        type: 2}
      propertyPath: m_AnchorMax.x
      value: 0.5
      objectReference: {fileID: 0}
    - target: {fileID: 224889509419977284, guid: dba0d80e56172be4f97df39ed5d3c631,
        type: 2}
      propertyPath: m_AnchorMax.y
      value: 0.5
      objectReference: {fileID: 0}
    - target: {fileID: 224889509419977284, guid: dba0d80e56172be4f97df39ed5d3c631,
        type: 2}
      propertyPath: m_Pivot.x
      value: 0.5
      objectReference: {fileID: 0}
    - target: {fileID: 224889509419977284, guid: dba0d80e56172be4f97df39ed5d3c631,
        type: 2}
      propertyPath: m_Pivot.y
      value: 0.5
      objectReference: {fileID: 0}
    - target: {fileID: 114834505971051042, guid: dba0d80e56172be4f97df39ed5d3c631,
        type: 2}
      propertyPath: m_Color.r
      value: 0.8980392
      objectReference: {fileID: 0}
    - target: {fileID: 114834505971051042, guid: dba0d80e56172be4f97df39ed5d3c631,
        type: 2}
      propertyPath: m_Color.g
      value: 0.8980392
      objectReference: {fileID: 0}
    - target: {fileID: 114834505971051042, guid: dba0d80e56172be4f97df39ed5d3c631,
        type: 2}
      propertyPath: m_Color.b
      value: 0.8980392
      objectReference: {fileID: 0}
    - target: {fileID: 114455962326348772, guid: dba0d80e56172be4f97df39ed5d3c631,
        type: 2}
      propertyPath: m_Color.r
      value: 1
      objectReference: {fileID: 0}
    - target: {fileID: 114455962326348772, guid: dba0d80e56172be4f97df39ed5d3c631,
        type: 2}
      propertyPath: m_Color.g
      value: 1
      objectReference: {fileID: 0}
    - target: {fileID: 114455962326348772, guid: dba0d80e56172be4f97df39ed5d3c631,
        type: 2}
      propertyPath: m_Color.b
      value: 1
      objectReference: {fileID: 0}
    - target: {fileID: 114629025510292044, guid: dba0d80e56172be4f97df39ed5d3c631,
        type: 2}
      propertyPath: m_Color.g
      value: 0.89705884
      objectReference: {fileID: 0}
    - target: {fileID: 114629025510292044, guid: dba0d80e56172be4f97df39ed5d3c631,
        type: 2}
      propertyPath: m_Color.b
      value: 0.89705884
      objectReference: {fileID: 0}
    - target: {fileID: 114629025510292044, guid: dba0d80e56172be4f97df39ed5d3c631,
        type: 2}
      propertyPath: m_Color.r
      value: 0.89705884
      objectReference: {fileID: 0}
    - target: {fileID: 114147625141150506, guid: dba0d80e56172be4f97df39ed5d3c631,
        type: 2}
      propertyPath: m_Color.r
      value: 0.8980392
      objectReference: {fileID: 0}
    - target: {fileID: 114147625141150506, guid: dba0d80e56172be4f97df39ed5d3c631,
        type: 2}
      propertyPath: m_Color.g
      value: 0.8980392
      objectReference: {fileID: 0}
    - target: {fileID: 114147625141150506, guid: dba0d80e56172be4f97df39ed5d3c631,
        type: 2}
      propertyPath: m_Color.b
      value: 0.8980392
      objectReference: {fileID: 0}
    m_RemovedComponents: []
  m_ParentPrefab: {fileID: 100100000, guid: dba0d80e56172be4f97df39ed5d3c631, type: 2}
  m_IsPrefabParent: 0
--- !u!1 &489051976
GameObject:
  m_ObjectHideFlags: 0
  m_PrefabParentObject: {fileID: 0}
  m_PrefabInternal: {fileID: 0}
  serializedVersion: 5
  m_Component:
  - component: {fileID: 489051980}
  - component: {fileID: 489051979}
  - component: {fileID: 489051978}
  - component: {fileID: 489051977}
  m_Layer: 0
  m_Name: Main Camera
  m_TagString: MainCamera
  m_Icon: {fileID: 0}
  m_NavMeshLayer: 0
  m_StaticEditorFlags: 0
  m_IsActive: 1
--- !u!81 &489051977
AudioListener:
  m_ObjectHideFlags: 0
  m_PrefabParentObject: {fileID: 0}
  m_PrefabInternal: {fileID: 0}
  m_GameObject: {fileID: 489051976}
  m_Enabled: 1
--- !u!124 &489051978
Behaviour:
  m_ObjectHideFlags: 0
  m_PrefabParentObject: {fileID: 0}
  m_PrefabInternal: {fileID: 0}
  m_GameObject: {fileID: 489051976}
  m_Enabled: 1
--- !u!20 &489051979
Camera:
  m_ObjectHideFlags: 0
  m_PrefabParentObject: {fileID: 0}
  m_PrefabInternal: {fileID: 0}
  m_GameObject: {fileID: 489051976}
  m_Enabled: 1
  serializedVersion: 2
  m_ClearFlags: 1
  m_BackGroundColor: {r: 0.19215687, g: 0.3019608, b: 0.4745098, a: 0}
  m_NormalizedViewPortRect:
    serializedVersion: 2
    x: 0
    y: 0
    width: 1
    height: 1
  near clip plane: 0.3
  far clip plane: 1000
  field of view: 60
  orthographic: 1
  orthographic size: 5
  m_Depth: -1
  m_CullingMask:
    serializedVersion: 2
    m_Bits: 4294967295
  m_RenderingPath: -1
  m_TargetTexture: {fileID: 0}
  m_TargetDisplay: 0
  m_TargetEye: 3
  m_HDR: 1
  m_AllowMSAA: 1
  m_AllowDynamicResolution: 0
  m_ForceIntoRT: 0
  m_OcclusionCulling: 1
  m_StereoConvergence: 10
  m_StereoSeparation: 0.022
--- !u!4 &489051980
Transform:
  m_ObjectHideFlags: 0
  m_PrefabParentObject: {fileID: 0}
  m_PrefabInternal: {fileID: 0}
  m_GameObject: {fileID: 489051976}
  m_LocalRotation: {x: 0, y: 0, z: 0, w: 1}
  m_LocalPosition: {x: 0, y: 0, z: -10}
  m_LocalScale: {x: 1, y: 1, z: 1}
  m_Children: []
  m_Father: {fileID: 0}
  m_RootOrder: 0
  m_LocalEulerAnglesHint: {x: 0, y: 0, z: 0}
--- !u!1001 &578650863
Prefab:
  m_ObjectHideFlags: 0
  serializedVersion: 2
  m_Modification:
    m_TransformParent: {fileID: 1301964638}
    m_Modifications:
    - target: {fileID: 224039886016153586, guid: 02e4d9e90d35147c4b3eae7e0acedc5f,
        type: 2}
      propertyPath: m_LocalPosition.x
      value: 461.74728
      objectReference: {fileID: 0}
    - target: {fileID: 224039886016153586, guid: 02e4d9e90d35147c4b3eae7e0acedc5f,
        type: 2}
      propertyPath: m_LocalPosition.y
      value: -244.37354
      objectReference: {fileID: 0}
    - target: {fileID: 224039886016153586, guid: 02e4d9e90d35147c4b3eae7e0acedc5f,
        type: 2}
      propertyPath: m_LocalPosition.z
      value: 0
      objectReference: {fileID: 0}
    - target: {fileID: 224039886016153586, guid: 02e4d9e90d35147c4b3eae7e0acedc5f,
        type: 2}
      propertyPath: m_LocalRotation.x
      value: -0
      objectReference: {fileID: 0}
    - target: {fileID: 224039886016153586, guid: 02e4d9e90d35147c4b3eae7e0acedc5f,
        type: 2}
      propertyPath: m_LocalRotation.y
      value: -0
      objectReference: {fileID: 0}
    - target: {fileID: 224039886016153586, guid: 02e4d9e90d35147c4b3eae7e0acedc5f,
        type: 2}
      propertyPath: m_LocalRotation.z
      value: -0
      objectReference: {fileID: 0}
    - target: {fileID: 224039886016153586, guid: 02e4d9e90d35147c4b3eae7e0acedc5f,
        type: 2}
      propertyPath: m_LocalRotation.w
      value: 1
      objectReference: {fileID: 0}
    - target: {fileID: 224039886016153586, guid: 02e4d9e90d35147c4b3eae7e0acedc5f,
        type: 2}
      propertyPath: m_RootOrder
      value: 1
      objectReference: {fileID: 0}
    - target: {fileID: 224039886016153586, guid: 02e4d9e90d35147c4b3eae7e0acedc5f,
        type: 2}
      propertyPath: m_AnchoredPosition.x
      value: -10
      objectReference: {fileID: 0}
    - target: {fileID: 224039886016153586, guid: 02e4d9e90d35147c4b3eae7e0acedc5f,
        type: 2}
      propertyPath: m_AnchoredPosition.y
      value: 10
      objectReference: {fileID: 0}
    - target: {fileID: 224039886016153586, guid: 02e4d9e90d35147c4b3eae7e0acedc5f,
        type: 2}
      propertyPath: m_SizeDelta.x
      value: 110
      objectReference: {fileID: 0}
    - target: {fileID: 224039886016153586, guid: 02e4d9e90d35147c4b3eae7e0acedc5f,
        type: 2}
      propertyPath: m_SizeDelta.y
      value: 40
      objectReference: {fileID: 0}
    - target: {fileID: 224039886016153586, guid: 02e4d9e90d35147c4b3eae7e0acedc5f,
        type: 2}
      propertyPath: m_AnchorMin.x
      value: 1
      objectReference: {fileID: 0}
    - target: {fileID: 224039886016153586, guid: 02e4d9e90d35147c4b3eae7e0acedc5f,
        type: 2}
      propertyPath: m_AnchorMin.y
      value: 0
      objectReference: {fileID: 0}
    - target: {fileID: 224039886016153586, guid: 02e4d9e90d35147c4b3eae7e0acedc5f,
        type: 2}
      propertyPath: m_AnchorMax.x
      value: 1
      objectReference: {fileID: 0}
    - target: {fileID: 224039886016153586, guid: 02e4d9e90d35147c4b3eae7e0acedc5f,
        type: 2}
      propertyPath: m_AnchorMax.y
      value: 0
      objectReference: {fileID: 0}
    - target: {fileID: 224039886016153586, guid: 02e4d9e90d35147c4b3eae7e0acedc5f,
        type: 2}
      propertyPath: m_Pivot.x
      value: 1
      objectReference: {fileID: 0}
    - target: {fileID: 224039886016153586, guid: 02e4d9e90d35147c4b3eae7e0acedc5f,
        type: 2}
      propertyPath: m_Pivot.y
      value: 0
      objectReference: {fileID: 0}
    - target: {fileID: 114865940049057424, guid: 02e4d9e90d35147c4b3eae7e0acedc5f,
        type: 2}
      propertyPath: panel
      value: 
      objectReference: {fileID: 1220168702}
    m_RemovedComponents: []
  m_ParentPrefab: {fileID: 100100000, guid: 02e4d9e90d35147c4b3eae7e0acedc5f, type: 2}
  m_IsPrefabParent: 0
--- !u!224 &612799352 stripped
RectTransform:
  m_PrefabParentObject: {fileID: 224039886016153586, guid: 02e4d9e90d35147c4b3eae7e0acedc5f,
    type: 2}
  m_PrefabInternal: {fileID: 578650863}
--- !u!1001 &637551520
Prefab:
  m_ObjectHideFlags: 0
  serializedVersion: 2
  m_Modification:
    m_TransformParent: {fileID: 0}
    m_Modifications:
    - target: {fileID: 4033344165944914, guid: c116f5020851c4e0caa0f12098c78231, type: 2}
      propertyPath: m_LocalPosition.x
      value: 11.037656
      objectReference: {fileID: 0}
    - target: {fileID: 4033344165944914, guid: c116f5020851c4e0caa0f12098c78231, type: 2}
      propertyPath: m_LocalPosition.y
      value: 8.89967
      objectReference: {fileID: 0}
    - target: {fileID: 4033344165944914, guid: c116f5020851c4e0caa0f12098c78231, type: 2}
      propertyPath: m_LocalPosition.z
      value: 0.060209956
      objectReference: {fileID: 0}
    - target: {fileID: 4033344165944914, guid: c116f5020851c4e0caa0f12098c78231, type: 2}
      propertyPath: m_LocalRotation.x
      value: 0
      objectReference: {fileID: 0}
    - target: {fileID: 4033344165944914, guid: c116f5020851c4e0caa0f12098c78231, type: 2}
      propertyPath: m_LocalRotation.y
      value: 0
      objectReference: {fileID: 0}
    - target: {fileID: 4033344165944914, guid: c116f5020851c4e0caa0f12098c78231, type: 2}
      propertyPath: m_LocalRotation.z
      value: 0
      objectReference: {fileID: 0}
    - target: {fileID: 4033344165944914, guid: c116f5020851c4e0caa0f12098c78231, type: 2}
      propertyPath: m_LocalRotation.w
      value: 1
      objectReference: {fileID: 0}
    - target: {fileID: 4033344165944914, guid: c116f5020851c4e0caa0f12098c78231, type: 2}
      propertyPath: m_RootOrder
      value: 4
      objectReference: {fileID: 0}
    - target: {fileID: 114487171252558218, guid: c116f5020851c4e0caa0f12098c78231,
        type: 2}
      propertyPath: loginpanel
      value: 
      objectReference: {fileID: 1224774076}
    m_RemovedComponents: []
  m_ParentPrefab: {fileID: 100100000, guid: c116f5020851c4e0caa0f12098c78231, type: 2}
  m_IsPrefabParent: 0
--- !u!1 &927999936
GameObject:
  m_ObjectHideFlags: 0
  m_PrefabParentObject: {fileID: 0}
  m_PrefabInternal: {fileID: 0}
  serializedVersion: 5
  m_Component:
  - component: {fileID: 927999939}
  - component: {fileID: 927999938}
  - component: {fileID: 927999937}
  - component: {fileID: 927999940}
  m_Layer: 0
  m_Name: EventSystem
  m_TagString: Untagged
  m_Icon: {fileID: 0}
  m_NavMeshLayer: 0
  m_StaticEditorFlags: 0
  m_IsActive: 1
--- !u!114 &927999937
MonoBehaviour:
  m_ObjectHideFlags: 0
  m_PrefabParentObject: {fileID: 0}
  m_PrefabInternal: {fileID: 0}
  m_GameObject: {fileID: 927999936}
  m_Enabled: 1
  m_EditorHideFlags: 0
  m_Script: {fileID: 1077351063, guid: f70555f144d8491a825f0804e09c671c, type: 3}
  m_Name: 
  m_EditorClassIdentifier: 
  m_HorizontalAxis: Horizontal
  m_VerticalAxis: Vertical
  m_SubmitButton: Submit
  m_CancelButton: Cancel
  m_InputActionsPerSecond: 10
  m_RepeatDelay: 0.5
  m_ForceModuleActive: 0
--- !u!114 &927999938
MonoBehaviour:
  m_ObjectHideFlags: 0
  m_PrefabParentObject: {fileID: 0}
  m_PrefabInternal: {fileID: 0}
  m_GameObject: {fileID: 927999936}
  m_Enabled: 1
  m_EditorHideFlags: 0
  m_Script: {fileID: -619905303, guid: f70555f144d8491a825f0804e09c671c, type: 3}
  m_Name: 
  m_EditorClassIdentifier: 
  m_FirstSelected: {fileID: 0}
  m_sendNavigationEvents: 1
  m_DragThreshold: 5
--- !u!4 &927999939
Transform:
  m_ObjectHideFlags: 0
  m_PrefabParentObject: {fileID: 0}
  m_PrefabInternal: {fileID: 0}
  m_GameObject: {fileID: 927999936}
  m_LocalRotation: {x: 0, y: 0, z: 0, w: 1}
  m_LocalPosition: {x: 0, y: 0, z: 0}
  m_LocalScale: {x: 1, y: 1, z: 1}
  m_Children: []
  m_Father: {fileID: 0}
  m_RootOrder: 5
  m_LocalEulerAnglesHint: {x: 0, y: 0, z: 0}
--- !u!114 &927999940
MonoBehaviour:
  m_ObjectHideFlags: 0
  m_PrefabParentObject: {fileID: 0}
  m_PrefabInternal: {fileID: 0}
  m_GameObject: {fileID: 927999936}
  m_Enabled: 1
  m_EditorHideFlags: 0
  m_Script: {fileID: 11500000, guid: 51727b5293899ac4c8467be946d6bd03, type: 3}
  m_Name: 
  m_EditorClassIdentifier: 
--- !u!1001 &989739935
Prefab:
  m_ObjectHideFlags: 0
  serializedVersion: 2
  m_Modification:
    m_TransformParent: {fileID: 1301964638}
    m_Modifications:
    - target: {fileID: 224259031914516236, guid: 69d652707e9584cef8305676360ec905,
        type: 2}
      propertyPath: m_LocalPosition.x
      value: 0
      objectReference: {fileID: 0}
    - target: {fileID: 224259031914516236, guid: 69d652707e9584cef8305676360ec905,
        type: 2}
      propertyPath: m_LocalPosition.y
      value: 274.37354
      objectReference: {fileID: 0}
    - target: {fileID: 224259031914516236, guid: 69d652707e9584cef8305676360ec905,
        type: 2}
      propertyPath: m_LocalPosition.z
      value: 0
      objectReference: {fileID: 0}
    - target: {fileID: 224259031914516236, guid: 69d652707e9584cef8305676360ec905,
        type: 2}
      propertyPath: m_LocalRotation.x
      value: -0
      objectReference: {fileID: 0}
    - target: {fileID: 224259031914516236, guid: 69d652707e9584cef8305676360ec905,
        type: 2}
      propertyPath: m_LocalRotation.y
      value: -0
      objectReference: {fileID: 0}
    - target: {fileID: 224259031914516236, guid: 69d652707e9584cef8305676360ec905,
        type: 2}
      propertyPath: m_LocalRotation.z
      value: -0
      objectReference: {fileID: 0}
    - target: {fileID: 224259031914516236, guid: 69d652707e9584cef8305676360ec905,
        type: 2}
      propertyPath: m_LocalRotation.w
      value: 1
      objectReference: {fileID: 0}
    - target: {fileID: 224259031914516236, guid: 69d652707e9584cef8305676360ec905,
        type: 2}
      propertyPath: m_RootOrder
      value: 0
      objectReference: {fileID: 0}
    - target: {fileID: 224259031914516236, guid: 69d652707e9584cef8305676360ec905,
        type: 2}
      propertyPath: m_AnchoredPosition.x
      value: 0
      objectReference: {fileID: 0}
    - target: {fileID: 224259031914516236, guid: 69d652707e9584cef8305676360ec905,
        type: 2}
      propertyPath: m_AnchoredPosition.y
      value: 20
      objectReference: {fileID: 0}
    - target: {fileID: 224259031914516236, guid: 69d652707e9584cef8305676360ec905,
        type: 2}
      propertyPath: m_SizeDelta.x
      value: 530
      objectReference: {fileID: 0}
    - target: {fileID: 224259031914516236, guid: 69d652707e9584cef8305676360ec905,
        type: 2}
      propertyPath: m_SizeDelta.y
      value: 250
      objectReference: {fileID: 0}
    - target: {fileID: 224259031914516236, guid: 69d652707e9584cef8305676360ec905,
        type: 2}
      propertyPath: m_AnchorMin.x
      value: 0.5
      objectReference: {fileID: 0}
    - target: {fileID: 224259031914516236, guid: 69d652707e9584cef8305676360ec905,
        type: 2}
      propertyPath: m_AnchorMin.y
      value: 1
      objectReference: {fileID: 0}
    - target: {fileID: 224259031914516236, guid: 69d652707e9584cef8305676360ec905,
        type: 2}
      propertyPath: m_AnchorMax.x
      value: 0.5
      objectReference: {fileID: 0}
    - target: {fileID: 224259031914516236, guid: 69d652707e9584cef8305676360ec905,
        type: 2}
      propertyPath: m_AnchorMax.y
      value: 1
      objectReference: {fileID: 0}
    - target: {fileID: 224259031914516236, guid: 69d652707e9584cef8305676360ec905,
        type: 2}
      propertyPath: m_Pivot.x
      value: 0.5
      objectReference: {fileID: 0}
    - target: {fileID: 224259031914516236, guid: 69d652707e9584cef8305676360ec905,
        type: 2}
      propertyPath: m_Pivot.y
      value: 1
      objectReference: {fileID: 0}
    m_RemovedComponents: []
  m_ParentPrefab: {fileID: 100100000, guid: 69d652707e9584cef8305676360ec905, type: 2}
  m_IsPrefabParent: 0
--- !u!1001 &1220168701
Prefab:
  m_ObjectHideFlags: 0
  serializedVersion: 2
  m_Modification:
    m_TransformParent: {fileID: 1301964638}
    m_Modifications:
    - target: {fileID: 224657444367545670, guid: 851520745ebcc42b8950b0a6dbe7704f,
        type: 2}
      propertyPath: m_LocalPosition.x
      value: 461.74728
      objectReference: {fileID: 0}
    - target: {fileID: 224657444367545670, guid: 851520745ebcc42b8950b0a6dbe7704f,
        type: 2}
      propertyPath: m_LocalPosition.y
      value: -194.37354
      objectReference: {fileID: 0}
    - target: {fileID: 224657444367545670, guid: 851520745ebcc42b8950b0a6dbe7704f,
        type: 2}
      propertyPath: m_LocalPosition.z
      value: 0
      objectReference: {fileID: 0}
    - target: {fileID: 224657444367545670, guid: 851520745ebcc42b8950b0a6dbe7704f,
        type: 2}
      propertyPath: m_LocalRotation.x
      value: -0
      objectReference: {fileID: 0}
    - target: {fileID: 224657444367545670, guid: 851520745ebcc42b8950b0a6dbe7704f,
        type: 2}
      propertyPath: m_LocalRotation.y
      value: -0
      objectReference: {fileID: 0}
    - target: {fileID: 224657444367545670, guid: 851520745ebcc42b8950b0a6dbe7704f,
        type: 2}
      propertyPath: m_LocalRotation.z
      value: -0
      objectReference: {fileID: 0}
    - target: {fileID: 224657444367545670, guid: 851520745ebcc42b8950b0a6dbe7704f,
        type: 2}
      propertyPath: m_LocalRotation.w
      value: 1
      objectReference: {fileID: 0}
    - target: {fileID: 224657444367545670, guid: 851520745ebcc42b8950b0a6dbe7704f,
        type: 2}
      propertyPath: m_RootOrder
      value: 2
      objectReference: {fileID: 0}
    - target: {fileID: 224657444367545670, guid: 851520745ebcc42b8950b0a6dbe7704f,
        type: 2}
      propertyPath: m_AnchoredPosition.x
      value: -10
      objectReference: {fileID: 0}
    - target: {fileID: 224657444367545670, guid: 851520745ebcc42b8950b0a6dbe7704f,
        type: 2}
      propertyPath: m_AnchoredPosition.y
      value: 60
      objectReference: {fileID: 0}
    - target: {fileID: 224657444367545670, guid: 851520745ebcc42b8950b0a6dbe7704f,
        type: 2}
      propertyPath: m_SizeDelta.x
      value: 200
      objectReference: {fileID: 0}
    - target: {fileID: 224657444367545670, guid: 851520745ebcc42b8950b0a6dbe7704f,
        type: 2}
      propertyPath: m_SizeDelta.y
      value: 320
      objectReference: {fileID: 0}
    - target: {fileID: 224657444367545670, guid: 851520745ebcc42b8950b0a6dbe7704f,
        type: 2}
      propertyPath: m_AnchorMin.x
      value: 1
      objectReference: {fileID: 0}
    - target: {fileID: 224657444367545670, guid: 851520745ebcc42b8950b0a6dbe7704f,
        type: 2}
      propertyPath: m_AnchorMin.y
      value: 0
      objectReference: {fileID: 0}
    - target: {fileID: 224657444367545670, guid: 851520745ebcc42b8950b0a6dbe7704f,
        type: 2}
      propertyPath: m_AnchorMax.x
      value: 1
      objectReference: {fileID: 0}
    - target: {fileID: 224657444367545670, guid: 851520745ebcc42b8950b0a6dbe7704f,
        type: 2}
      propertyPath: m_AnchorMax.y
      value: 0
      objectReference: {fileID: 0}
    - target: {fileID: 224657444367545670, guid: 851520745ebcc42b8950b0a6dbe7704f,
        type: 2}
      propertyPath: m_Pivot.x
      value: 1
      objectReference: {fileID: 0}
    - target: {fileID: 224657444367545670, guid: 851520745ebcc42b8950b0a6dbe7704f,
        type: 2}
      propertyPath: m_Pivot.y
      value: 0
      objectReference: {fileID: 0}
    - target: {fileID: 114235239934343968, guid: 851520745ebcc42b8950b0a6dbe7704f,
        type: 2}
      propertyPath: m_Sprite
      value: 
      objectReference: {fileID: 21300000, guid: 35293be0b0e584b0d9b0034bd7e591e5,
        type: 3}
    - target: {fileID: 114235239934343968, guid: 851520745ebcc42b8950b0a6dbe7704f,
        type: 2}
      propertyPath: m_Color.a
      value: 1
      objectReference: {fileID: 0}
    - target: {fileID: 114235239934343968, guid: 851520745ebcc42b8950b0a6dbe7704f,
        type: 2}
      propertyPath: m_Color.r
      value: 0.8392157
      objectReference: {fileID: 0}
    - target: {fileID: 114235239934343968, guid: 851520745ebcc42b8950b0a6dbe7704f,
        type: 2}
      propertyPath: m_Color.g
      value: 0.8392157
      objectReference: {fileID: 0}
    - target: {fileID: 114235239934343968, guid: 851520745ebcc42b8950b0a6dbe7704f,
        type: 2}
      propertyPath: m_Color.b
      value: 0.8392157
      objectReference: {fileID: 0}
    m_RemovedComponents: []
  m_ParentPrefab: {fileID: 100100000, guid: 851520745ebcc42b8950b0a6dbe7704f, type: 2}
  m_IsPrefabParent: 0
--- !u!1 &1220168702 stripped
GameObject:
  m_PrefabParentObject: {fileID: 1328319875694096, guid: 851520745ebcc42b8950b0a6dbe7704f,
    type: 2}
  m_PrefabInternal: {fileID: 1220168701}
--- !u!224 &1220168703 stripped
RectTransform:
  m_PrefabParentObject: {fileID: 224657444367545670, guid: 851520745ebcc42b8950b0a6dbe7704f,
    type: 2}
  m_PrefabInternal: {fileID: 1220168701}
--- !u!1 &1224774076 stripped
GameObject:
  m_PrefabParentObject: {fileID: 1614383442913142, guid: dba0d80e56172be4f97df39ed5d3c631,
    type: 2}
  m_PrefabInternal: {fileID: 298334035}
--- !u!224 &1224774077 stripped
RectTransform:
  m_PrefabParentObject: {fileID: 224889509419977284, guid: dba0d80e56172be4f97df39ed5d3c631,
    type: 2}
  m_PrefabInternal: {fileID: 298334035}
--- !u!1 &1301964634
GameObject:
  m_ObjectHideFlags: 0
  m_PrefabParentObject: {fileID: 0}
  m_PrefabInternal: {fileID: 0}
  serializedVersion: 5
  m_Component:
  - component: {fileID: 1301964638}
  - component: {fileID: 1301964637}
  - component: {fileID: 1301964636}
  - component: {fileID: 1301964635}
  - component: {fileID: 1301964639}
  m_Layer: 5
  m_Name: Canvas
  m_TagString: Untagged
  m_Icon: {fileID: 0}
  m_NavMeshLayer: 0
  m_StaticEditorFlags: 0
  m_IsActive: 1
--- !u!114 &1301964635
MonoBehaviour:
  m_ObjectHideFlags: 0
  m_PrefabParentObject: {fileID: 0}
  m_PrefabInternal: {fileID: 0}
  m_GameObject: {fileID: 1301964634}
  m_Enabled: 1
  m_EditorHideFlags: 0
  m_Script: {fileID: 1301386320, guid: f70555f144d8491a825f0804e09c671c, type: 3}
  m_Name: 
  m_EditorClassIdentifier: 
  m_IgnoreReversedGraphics: 1
  m_BlockingObjects: 0
  m_BlockingMask:
    serializedVersion: 2
    m_Bits: 4294967295
--- !u!114 &1301964636
MonoBehaviour:
  m_ObjectHideFlags: 0
  m_PrefabParentObject: {fileID: 0}
  m_PrefabInternal: {fileID: 0}
  m_GameObject: {fileID: 1301964634}
  m_Enabled: 1
  m_EditorHideFlags: 0
  m_Script: {fileID: 1980459831, guid: f70555f144d8491a825f0804e09c671c, type: 3}
  m_Name: 
  m_EditorClassIdentifier: 
  m_UiScaleMode: 1
  m_ReferencePixelsPerUnit: 100
  m_ScaleFactor: 1
  m_ReferenceResolution: {x: 800, y: 600}
  m_ScreenMatchMode: 0
  m_MatchWidthOrHeight: 0.5
  m_PhysicalUnit: 3
  m_FallbackScreenDPI: 96
  m_DefaultSpriteDPI: 96
  m_DynamicPixelsPerUnit: 1
--- !u!223 &1301964637
Canvas:
  m_ObjectHideFlags: 0
  m_PrefabParentObject: {fileID: 0}
  m_PrefabInternal: {fileID: 0}
  m_GameObject: {fileID: 1301964634}
  m_Enabled: 1
  serializedVersion: 3
  m_RenderMode: 0
  m_Camera: {fileID: 0}
  m_PlaneDistance: 100
  m_PixelPerfect: 0
  m_ReceivesEvents: 1
  m_OverrideSorting: 0
  m_OverridePixelPerfect: 0
  m_SortingBucketNormalizedSize: 0
  m_AdditionalShaderChannelsFlag: 0
  m_SortingLayerID: 0
  m_SortingOrder: 0
  m_TargetDisplay: 0
--- !u!224 &1301964638
RectTransform:
  m_ObjectHideFlags: 0
  m_PrefabParentObject: {fileID: 0}
  m_PrefabInternal: {fileID: 0}
  m_GameObject: {fileID: 1301964634}
  m_LocalRotation: {x: 0, y: 0, z: 0, w: 1}
  m_LocalPosition: {x: 0, y: 0, z: 0}
  m_LocalScale: {x: 0, y: 0, z: 0}
  m_Children:
  - {fileID: 1727785720}
  - {fileID: 612799352}
  - {fileID: 1220168703}
  - {fileID: 1224774077}
  m_Father: {fileID: 0}
  m_RootOrder: 3
  m_LocalEulerAnglesHint: {x: 0, y: 0, z: 0}
  m_AnchorMin: {x: 0, y: 0}
  m_AnchorMax: {x: 0, y: 0}
  m_AnchoredPosition: {x: 0, y: 0}
  m_SizeDelta: {x: 0, y: 0}
  m_Pivot: {x: 0, y: 0}
--- !u!82 &1301964639
AudioSource:
  m_ObjectHideFlags: 0
  m_PrefabParentObject: {fileID: 0}
  m_PrefabInternal: {fileID: 0}
  m_GameObject: {fileID: 1301964634}
  m_Enabled: 1
  serializedVersion: 4
  OutputAudioMixerGroup: {fileID: 0}
  m_audioClip: {fileID: 8300000, guid: c5162122677f0a94cb11d520c2918b39, type: 3}
  m_PlayOnAwake: 1
  m_Volume: 1
  m_Pitch: 1
  Loop: 1
  Mute: 0
  Spatialize: 0
  SpatializePostEffects: 0
  Priority: 128
  DopplerLevel: 1
  MinDistance: 1
  MaxDistance: 500
  Pan2D: 0
  rolloffMode: 0
  BypassEffects: 0
  BypassListenerEffects: 0
  BypassReverbZones: 0
  rolloffCustomCurve:
    serializedVersion: 2
    m_Curve:
    - serializedVersion: 2
      time: 0
      value: 1
      inSlope: 0
      outSlope: 0
      tangentMode: 0
    - serializedVersion: 2
      time: 1
      value: 0
      inSlope: 0
      outSlope: 0
      tangentMode: 0
    m_PreInfinity: 2
    m_PostInfinity: 2
    m_RotationOrder: 4
  panLevelCustomCurve:
    serializedVersion: 2
    m_Curve:
    - serializedVersion: 2
      time: 0
      value: 0
      inSlope: 0
      outSlope: 0
      tangentMode: 0
    m_PreInfinity: 2
    m_PostInfinity: 2
    m_RotationOrder: 0
  spreadCustomCurve:
    serializedVersion: 2
    m_Curve:
    - serializedVersion: 2
      time: 0
      value: 0
      inSlope: 0
      outSlope: 0
      tangentMode: 0
    m_PreInfinity: 2
    m_PostInfinity: 2
    m_RotationOrder: 4
  reverbZoneMixCustomCurve:
    serializedVersion: 2
    m_Curve:
    - serializedVersion: 2
      time: 0
      value: 1
      inSlope: 0
      outSlope: 0
      tangentMode: 0
    m_PreInfinity: 2
    m_PostInfinity: 2
    m_RotationOrder: 0
--- !u!1 &1395054426
GameObject:
  m_ObjectHideFlags: 0
  m_PrefabParentObject: {fileID: 0}
  m_PrefabInternal: {fileID: 0}
  serializedVersion: 5
  m_Component:
  - component: {fileID: 1395054428}
  - component: {fileID: 1395054427}
  m_Layer: 0
  m_Name: Background (2)
  m_TagString: Untagged
  m_Icon: {fileID: 0}
  m_NavMeshLayer: 0
  m_StaticEditorFlags: 0
  m_IsActive: 1
--- !u!212 &1395054427
SpriteRenderer:
  m_ObjectHideFlags: 0
  m_PrefabParentObject: {fileID: 0}
  m_PrefabInternal: {fileID: 0}
  m_GameObject: {fileID: 1395054426}
  m_Enabled: 1
  m_CastShadows: 0
  m_ReceiveShadows: 0
  m_DynamicOccludee: 1
  m_MotionVectors: 1
  m_LightProbeUsage: 1
  m_ReflectionProbeUsage: 1
  m_Materials:
  - {fileID: 10754, guid: 0000000000000000f000000000000000, type: 0}
  m_StaticBatchInfo:
    firstSubMesh: 0
    subMeshCount: 0
  m_StaticBatchRoot: {fileID: 0}
  m_ProbeAnchor: {fileID: 0}
  m_LightProbeVolumeOverride: {fileID: 0}
  m_ScaleInLightmap: 1
  m_PreserveUVs: 0
  m_IgnoreNormalsForChartDetection: 0
  m_ImportantGI: 0
  m_StitchLightmapSeams: 0
  m_SelectedEditorRenderState: 0
  m_MinimumChartSize: 4
  m_AutoUVMaxDistance: 0.5
  m_AutoUVMaxAngle: 89
  m_LightmapParameters: {fileID: 0}
  m_SortingLayerID: 0
  m_SortingLayer: 0
  m_SortingOrder: -1
  m_Sprite: {fileID: 21300000, guid: 2e674f402b5204e44ba03e1483456de6, type: 3}
  m_Color: {r: 1, g: 1, b: 1, a: 1}
  m_FlipX: 0
  m_FlipY: 0
  m_DrawMode: 0
  m_Size: {x: 12.8, y: 7.2}
  m_AdaptiveModeThreshold: 0.5
  m_SpriteTileMode: 0
  m_WasSpriteAssigned: 1
  m_MaskInteraction: 0
--- !u!4 &1395054428
Transform:
  m_ObjectHideFlags: 0
  m_PrefabParentObject: {fileID: 0}
  m_PrefabInternal: {fileID: 0}
  m_GameObject: {fileID: 1395054426}
  m_LocalRotation: {x: 0, y: 0, z: 0, w: 1}
  m_LocalPosition: {x: 19.19, y: 0.23, z: -0.42054266}
  m_LocalScale: {x: 1.5, y: 1.5, z: 1.5}
  m_Children: []
  m_Father: {fileID: 0}
  m_RootOrder: 9
  m_LocalEulerAnglesHint: {x: 0, y: 0, z: 0}
--- !u!1001 &1447717467
Prefab:
  m_ObjectHideFlags: 0
  serializedVersion: 2
  m_Modification:
    m_TransformParent: {fileID: 0}
    m_Modifications:
    - target: {fileID: 224882803607716394, guid: cc1d75170a4594b7a9ed8d8d94c2b4bc,
        type: 2}
      propertyPath: m_LocalPosition.x
      value: 357
      objectReference: {fileID: 0}
    - target: {fileID: 224882803607716394, guid: cc1d75170a4594b7a9ed8d8d94c2b4bc,
        type: 2}
      propertyPath: m_LocalPosition.y
      value: 192.5
      objectReference: {fileID: 0}
    - target: {fileID: 224882803607716394, guid: cc1d75170a4594b7a9ed8d8d94c2b4bc,
        type: 2}
      propertyPath: m_LocalPosition.z
      value: 0
      objectReference: {fileID: 0}
    - target: {fileID: 224882803607716394, guid: cc1d75170a4594b7a9ed8d8d94c2b4bc,
        type: 2}
      propertyPath: m_LocalRotation.x
      value: 0
      objectReference: {fileID: 0}
    - target: {fileID: 224882803607716394, guid: cc1d75170a4594b7a9ed8d8d94c2b4bc,
        type: 2}
      propertyPath: m_LocalRotation.y
      value: 0
      objectReference: {fileID: 0}
    - target: {fileID: 224882803607716394, guid: cc1d75170a4594b7a9ed8d8d94c2b4bc,
        type: 2}
      propertyPath: m_LocalRotation.z
      value: 0
      objectReference: {fileID: 0}
    - target: {fileID: 224882803607716394, guid: cc1d75170a4594b7a9ed8d8d94c2b4bc,
        type: 2}
      propertyPath: m_LocalRotation.w
      value: 1
      objectReference: {fileID: 0}
    - target: {fileID: 224882803607716394, guid: cc1d75170a4594b7a9ed8d8d94c2b4bc,
        type: 2}
      propertyPath: m_RootOrder
      value: 14
      objectReference: {fileID: 0}
    - target: {fileID: 224882803607716394, guid: cc1d75170a4594b7a9ed8d8d94c2b4bc,
        type: 2}
      propertyPath: m_AnchoredPosition.x
      value: 0
      objectReference: {fileID: 0}
    - target: {fileID: 224882803607716394, guid: cc1d75170a4594b7a9ed8d8d94c2b4bc,
        type: 2}
      propertyPath: m_AnchoredPosition.y
      value: 0
      objectReference: {fileID: 0}
    - target: {fileID: 224882803607716394, guid: cc1d75170a4594b7a9ed8d8d94c2b4bc,
        type: 2}
      propertyPath: m_SizeDelta.x
      value: 100
      objectReference: {fileID: 0}
    - target: {fileID: 224882803607716394, guid: cc1d75170a4594b7a9ed8d8d94c2b4bc,
        type: 2}
      propertyPath: m_SizeDelta.y
      value: 100
      objectReference: {fileID: 0}
    - target: {fileID: 224882803607716394, guid: cc1d75170a4594b7a9ed8d8d94c2b4bc,
        type: 2}
      propertyPath: m_AnchorMin.x
      value: 0.5
      objectReference: {fileID: 0}
    - target: {fileID: 224882803607716394, guid: cc1d75170a4594b7a9ed8d8d94c2b4bc,
        type: 2}
      propertyPath: m_AnchorMin.y
      value: 0.5
      objectReference: {fileID: 0}
    - target: {fileID: 224882803607716394, guid: cc1d75170a4594b7a9ed8d8d94c2b4bc,
        type: 2}
      propertyPath: m_AnchorMax.x
      value: 0.5
      objectReference: {fileID: 0}
    - target: {fileID: 224882803607716394, guid: cc1d75170a4594b7a9ed8d8d94c2b4bc,
        type: 2}
      propertyPath: m_AnchorMax.y
      value: 0.5
      objectReference: {fileID: 0}
    - target: {fileID: 224882803607716394, guid: cc1d75170a4594b7a9ed8d8d94c2b4bc,
        type: 2}
      propertyPath: m_Pivot.x
      value: 0.5
      objectReference: {fileID: 0}
    - target: {fileID: 224882803607716394, guid: cc1d75170a4594b7a9ed8d8d94c2b4bc,
        type: 2}
      propertyPath: m_Pivot.y
      value: 0.5
      objectReference: {fileID: 0}
    - target: {fileID: 224759395154561560, guid: cc1d75170a4594b7a9ed8d8d94c2b4bc,
        type: 2}
      propertyPath: m_LocalPosition.y
      value: 977.46484
      objectReference: {fileID: 0}
    - target: {fileID: 224590541066670230, guid: cc1d75170a4594b7a9ed8d8d94c2b4bc,
        type: 2}
      propertyPath: m_LocalPosition.y
      value: -877.46484
      objectReference: {fileID: 0}
    - target: {fileID: 224474960362958726, guid: cc1d75170a4594b7a9ed8d8d94c2b4bc,
        type: 2}
      propertyPath: m_LocalPosition.y
      value: -937.46484
      objectReference: {fileID: 0}
    m_RemovedComponents: []
  m_ParentPrefab: {fileID: 100100000, guid: cc1d75170a4594b7a9ed8d8d94c2b4bc, type: 2}
  m_IsPrefabParent: 0
--- !u!1001 &1462540031
Prefab:
  m_ObjectHideFlags: 0
  serializedVersion: 2
  m_Modification:
    m_TransformParent: {fileID: 0}
    m_Modifications:
    - target: {fileID: 4459784882045936, guid: da995e896c3e3461c93735cde2c063b9, type: 2}
      propertyPath: m_LocalPosition.x
      value: -27.8
      objectReference: {fileID: 0}
    - target: {fileID: 4459784882045936, guid: da995e896c3e3461c93735cde2c063b9, type: 2}
      propertyPath: m_LocalPosition.y
      value: -0.1
      objectReference: {fileID: 0}
    - target: {fileID: 4459784882045936, guid: da995e896c3e3461c93735cde2c063b9, type: 2}
      propertyPath: m_LocalPosition.z
      value: -0.34589234
      objectReference: {fileID: 0}
    - target: {fileID: 4459784882045936, guid: da995e896c3e3461c93735cde2c063b9, type: 2}
      propertyPath: m_LocalRotation.x
      value: 0
      objectReference: {fileID: 0}
    - target: {fileID: 4459784882045936, guid: da995e896c3e3461c93735cde2c063b9, type: 2}
      propertyPath: m_LocalRotation.y
      value: 0
      objectReference: {fileID: 0}
    - target: {fileID: 4459784882045936, guid: da995e896c3e3461c93735cde2c063b9, type: 2}
      propertyPath: m_LocalRotation.z
      value: 0
      objectReference: {fileID: 0}
    - target: {fileID: 4459784882045936, guid: da995e896c3e3461c93735cde2c063b9, type: 2}
      propertyPath: m_LocalRotation.w
      value: 1
      objectReference: {fileID: 0}
    - target: {fileID: 4459784882045936, guid: da995e896c3e3461c93735cde2c063b9, type: 2}
      propertyPath: m_RootOrder
      value: 12
      objectReference: {fileID: 0}
    - target: {fileID: 1740649138821246, guid: da995e896c3e3461c93735cde2c063b9, type: 2}
      propertyPath: m_Name
      value: TimedSpawner (2)
      objectReference: {fileID: 0}
    m_RemovedComponents: []
  m_ParentPrefab: {fileID: 100100000, guid: da995e896c3e3461c93735cde2c063b9, type: 2}
  m_IsPrefabParent: 0
--- !u!1001 &1493579538
Prefab:
  m_ObjectHideFlags: 0
  serializedVersion: 2
  m_Modification:
    m_TransformParent: {fileID: 0}
    m_Modifications:
    - target: {fileID: 4459784882045936, guid: da995e896c3e3461c93735cde2c063b9, type: 2}
      propertyPath: m_LocalPosition.x
      value: -0.3
      objectReference: {fileID: 0}
    - target: {fileID: 4459784882045936, guid: da995e896c3e3461c93735cde2c063b9, type: 2}
      propertyPath: m_LocalPosition.y
      value: 8.091117
      objectReference: {fileID: 0}
    - target: {fileID: 4459784882045936, guid: da995e896c3e3461c93735cde2c063b9, type: 2}
      propertyPath: m_LocalPosition.z
      value: -0.34589234
      objectReference: {fileID: 0}
    - target: {fileID: 4459784882045936, guid: da995e896c3e3461c93735cde2c063b9, type: 2}
      propertyPath: m_LocalRotation.x
      value: 0
      objectReference: {fileID: 0}
    - target: {fileID: 4459784882045936, guid: da995e896c3e3461c93735cde2c063b9, type: 2}
      propertyPath: m_LocalRotation.y
      value: 0
      objectReference: {fileID: 0}
    - target: {fileID: 4459784882045936, guid: da995e896c3e3461c93735cde2c063b9, type: 2}
      propertyPath: m_LocalRotation.z
      value: 0
      objectReference: {fileID: 0}
    - target: {fileID: 4459784882045936, guid: da995e896c3e3461c93735cde2c063b9, type: 2}
      propertyPath: m_LocalRotation.w
      value: 1
      objectReference: {fileID: 0}
    - target: {fileID: 4459784882045936, guid: da995e896c3e3461c93735cde2c063b9, type: 2}
      propertyPath: m_RootOrder
      value: 10
      objectReference: {fileID: 0}
    m_RemovedComponents: []
  m_ParentPrefab: {fileID: 100100000, guid: da995e896c3e3461c93735cde2c063b9, type: 2}
  m_IsPrefabParent: 0
--- !u!1 &1497686637
GameObject:
  m_ObjectHideFlags: 0
  m_PrefabParentObject: {fileID: 0}
  m_PrefabInternal: {fileID: 0}
  serializedVersion: 5
  m_Component:
  - component: {fileID: 1497686639}
  - component: {fileID: 1497686638}
  m_Layer: 0
  m_Name: Background (1)
  m_TagString: Untagged
  m_Icon: {fileID: 0}
  m_NavMeshLayer: 0
  m_StaticEditorFlags: 0
  m_IsActive: 1
--- !u!212 &1497686638
SpriteRenderer:
  m_ObjectHideFlags: 0
  m_PrefabParentObject: {fileID: 0}
  m_PrefabInternal: {fileID: 0}
  m_GameObject: {fileID: 1497686637}
  m_Enabled: 1
  m_CastShadows: 0
  m_ReceiveShadows: 0
  m_DynamicOccludee: 1
  m_MotionVectors: 1
  m_LightProbeUsage: 1
  m_ReflectionProbeUsage: 1
  m_Materials:
  - {fileID: 10754, guid: 0000000000000000f000000000000000, type: 0}
  m_StaticBatchInfo:
    firstSubMesh: 0
    subMeshCount: 0
  m_StaticBatchRoot: {fileID: 0}
  m_ProbeAnchor: {fileID: 0}
  m_LightProbeVolumeOverride: {fileID: 0}
  m_ScaleInLightmap: 1
  m_PreserveUVs: 0
  m_IgnoreNormalsForChartDetection: 0
  m_ImportantGI: 0
  m_StitchLightmapSeams: 0
  m_SelectedEditorRenderState: 0
  m_MinimumChartSize: 4
  m_AutoUVMaxDistance: 0.5
  m_AutoUVMaxAngle: 89
  m_LightmapParameters: {fileID: 0}
  m_SortingLayerID: 0
  m_SortingLayer: 0
  m_SortingOrder: -1
  m_Sprite: {fileID: 21300000, guid: 2e674f402b5204e44ba03e1483456de6, type: 3}
  m_Color: {r: 1, g: 1, b: 1, a: 1}
  m_FlipX: 0
  m_FlipY: 0
  m_DrawMode: 0
  m_Size: {x: 12.8, y: 7.2}
  m_AdaptiveModeThreshold: 0.5
  m_SpriteTileMode: 0
  m_WasSpriteAssigned: 1
  m_MaskInteraction: 0
--- !u!4 &1497686639
Transform:
  m_ObjectHideFlags: 0
  m_PrefabParentObject: {fileID: 0}
  m_PrefabInternal: {fileID: 0}
  m_GameObject: {fileID: 1497686637}
  m_LocalRotation: {x: 0, y: 0, z: 0, w: 1}
  m_LocalPosition: {x: -19.2, y: 0.23, z: -0.42054266}
  m_LocalScale: {x: 1.5, y: 1.5, z: 1.5}
  m_Children: []
  m_Father: {fileID: 0}
  m_RootOrder: 8
  m_LocalEulerAnglesHint: {x: 0, y: 0, z: 0}
--- !u!1001 &1656039452
Prefab:
  m_ObjectHideFlags: 0
  serializedVersion: 2
  m_Modification:
    m_TransformParent: {fileID: 0}
    m_Modifications:
    - target: {fileID: 4307632356813398, guid: 693c706fbb622434a8f13ecbfcb0cba2, type: 2}
      propertyPath: m_LocalPosition.x
      value: 3.8974278
      objectReference: {fileID: 0}
    - target: {fileID: 4307632356813398, guid: 693c706fbb622434a8f13ecbfcb0cba2, type: 2}
      propertyPath: m_LocalPosition.y
      value: 1.8289709
      objectReference: {fileID: 0}
    - target: {fileID: 4307632356813398, guid: 693c706fbb622434a8f13ecbfcb0cba2, type: 2}
      propertyPath: m_LocalPosition.z
      value: 0
      objectReference: {fileID: 0}
    - target: {fileID: 4307632356813398, guid: 693c706fbb622434a8f13ecbfcb0cba2, type: 2}
      propertyPath: m_LocalRotation.x
      value: -0
      objectReference: {fileID: 0}
    - target: {fileID: 4307632356813398, guid: 693c706fbb622434a8f13ecbfcb0cba2, type: 2}
      propertyPath: m_LocalRotation.y
      value: -0
      objectReference: {fileID: 0}
    - target: {fileID: 4307632356813398, guid: 693c706fbb622434a8f13ecbfcb0cba2, type: 2}
      propertyPath: m_LocalRotation.z
      value: -0
      objectReference: {fileID: 0}
    - target: {fileID: 4307632356813398, guid: 693c706fbb622434a8f13ecbfcb0cba2, type: 2}
      propertyPath: m_LocalRotation.w
      value: 1
      objectReference: {fileID: 0}
    - target: {fileID: 4307632356813398, guid: 693c706fbb622434a8f13ecbfcb0cba2, type: 2}
      propertyPath: m_RootOrder
      value: 2
      objectReference: {fileID: 0}
    - target: {fileID: 1299857647401032, guid: 693c706fbb622434a8f13ecbfcb0cba2, type: 2}
      propertyPath: m_Name
      value: IdleFlySparrow (1)
      objectReference: {fileID: 0}
    m_RemovedComponents: []
  m_ParentPrefab: {fileID: 100100000, guid: 693c706fbb622434a8f13ecbfcb0cba2, type: 2}
  m_IsPrefabParent: 0
--- !u!1001 &1669262565
Prefab:
  m_ObjectHideFlags: 0
  serializedVersion: 2
  m_Modification:
    m_TransformParent: {fileID: 0}
    m_Modifications:
    - target: {fileID: 4459784882045936, guid: da995e896c3e3461c93735cde2c063b9, type: 2}
      propertyPath: m_LocalPosition.x
      value: 27.2
      objectReference: {fileID: 0}
    - target: {fileID: 4459784882045936, guid: da995e896c3e3461c93735cde2c063b9, type: 2}
      propertyPath: m_LocalPosition.y
      value: -0.6
      objectReference: {fileID: 0}
    - target: {fileID: 4459784882045936, guid: da995e896c3e3461c93735cde2c063b9, type: 2}
      propertyPath: m_LocalPosition.z
      value: -0.34589234
      objectReference: {fileID: 0}
    - target: {fileID: 4459784882045936, guid: da995e896c3e3461c93735cde2c063b9, type: 2}
      propertyPath: m_LocalRotation.x
      value: 0
      objectReference: {fileID: 0}
    - target: {fileID: 4459784882045936, guid: da995e896c3e3461c93735cde2c063b9, type: 2}
      propertyPath: m_LocalRotation.y
      value: 0
      objectReference: {fileID: 0}
    - target: {fileID: 4459784882045936, guid: da995e896c3e3461c93735cde2c063b9, type: 2}
      propertyPath: m_LocalRotation.z
      value: 0
      objectReference: {fileID: 0}
    - target: {fileID: 4459784882045936, guid: da995e896c3e3461c93735cde2c063b9, type: 2}
      propertyPath: m_LocalRotation.w
      value: 1
      objectReference: {fileID: 0}
    - target: {fileID: 4459784882045936, guid: da995e896c3e3461c93735cde2c063b9, type: 2}
      propertyPath: m_RootOrder
      value: 13
      objectReference: {fileID: 0}
    - target: {fileID: 1740649138821246, guid: da995e896c3e3461c93735cde2c063b9, type: 2}
      propertyPath: m_Name
      value: TimedSpawner (3)
      objectReference: {fileID: 0}
    m_RemovedComponents: []
  m_ParentPrefab: {fileID: 100100000, guid: da995e896c3e3461c93735cde2c063b9, type: 2}
  m_IsPrefabParent: 0
--- !u!224 &1727785720 stripped
RectTransform:
  m_PrefabParentObject: {fileID: 224259031914516236, guid: 69d652707e9584cef8305676360ec905,
    type: 2}
  m_PrefabInternal: {fileID: 989739935}
--- !u!1001 &1863081306
Prefab:
  m_ObjectHideFlags: 0
  serializedVersion: 2
  m_Modification:
    m_TransformParent: {fileID: 0}
    m_Modifications:
    - target: {fileID: 4307632356813398, guid: 693c706fbb622434a8f13ecbfcb0cba2, type: 2}
      propertyPath: m_LocalPosition.x
      value: -4.252799
      objectReference: {fileID: 0}
    - target: {fileID: 4307632356813398, guid: 693c706fbb622434a8f13ecbfcb0cba2, type: 2}
      propertyPath: m_LocalPosition.y
      value: -2.9968224
      objectReference: {fileID: 0}
    - target: {fileID: 4307632356813398, guid: 693c706fbb622434a8f13ecbfcb0cba2, type: 2}
      propertyPath: m_LocalPosition.z
      value: 0
      objectReference: {fileID: 0}
    - target: {fileID: 4307632356813398, guid: 693c706fbb622434a8f13ecbfcb0cba2, type: 2}
      propertyPath: m_LocalRotation.x
      value: -0
      objectReference: {fileID: 0}
    - target: {fileID: 4307632356813398, guid: 693c706fbb622434a8f13ecbfcb0cba2, type: 2}
      propertyPath: m_LocalRotation.y
      value: -0
      objectReference: {fileID: 0}
    - target: {fileID: 4307632356813398, guid: 693c706fbb622434a8f13ecbfcb0cba2, type: 2}
      propertyPath: m_LocalRotation.z
      value: -0
      objectReference: {fileID: 0}
    - target: {fileID: 4307632356813398, guid: 693c706fbb622434a8f13ecbfcb0cba2, type: 2}
      propertyPath: m_LocalRotation.w
      value: 1
      objectReference: {fileID: 0}
    - target: {fileID: 4307632356813398, guid: 693c706fbb622434a8f13ecbfcb0cba2, type: 2}
      propertyPath: m_RootOrder
      value: 1
      objectReference: {fileID: 0}
    - target: {fileID: 1299857647401032, guid: 693c706fbb622434a8f13ecbfcb0cba2, type: 2}
      propertyPath: m_Name
      value: IdleFlySparrow (2)
      objectReference: {fileID: 0}
    m_RemovedComponents: []
  m_ParentPrefab: {fileID: 100100000, guid: 693c706fbb622434a8f13ecbfcb0cba2, type: 2}
  m_IsPrefabParent: 0
--- !u!1001 &1965187955
Prefab:
  m_ObjectHideFlags: 0
  serializedVersion: 2
  m_Modification:
    m_TransformParent: {fileID: 0}
    m_Modifications:
    - target: {fileID: 4459784882045936, guid: da995e896c3e3461c93735cde2c063b9, type: 2}
      propertyPath: m_LocalPosition.x
      value: -0.3
      objectReference: {fileID: 0}
    - target: {fileID: 4459784882045936, guid: da995e896c3e3461c93735cde2c063b9, type: 2}
      propertyPath: m_LocalPosition.y
      value: -12.4
      objectReference: {fileID: 0}
    - target: {fileID: 4459784882045936, guid: da995e896c3e3461c93735cde2c063b9, type: 2}
      propertyPath: m_LocalPosition.z
      value: -0.34589234
      objectReference: {fileID: 0}
    - target: {fileID: 4459784882045936, guid: da995e896c3e3461c93735cde2c063b9, type: 2}
      propertyPath: m_LocalRotation.x
      value: 0
      objectReference: {fileID: 0}
    - target: {fileID: 4459784882045936, guid: da995e896c3e3461c93735cde2c063b9, type: 2}
      propertyPath: m_LocalRotation.y
      value: 0
      objectReference: {fileID: 0}
    - target: {fileID: 4459784882045936, guid: da995e896c3e3461c93735cde2c063b9, type: 2}
      propertyPath: m_LocalRotation.z
      value: 0
      objectReference: {fileID: 0}
    - target: {fileID: 4459784882045936, guid: da995e896c3e3461c93735cde2c063b9, type: 2}
      propertyPath: m_LocalRotation.w
      value: 1
      objectReference: {fileID: 0}
    - target: {fileID: 4459784882045936, guid: da995e896c3e3461c93735cde2c063b9, type: 2}
      propertyPath: m_RootOrder
      value: 11
      objectReference: {fileID: 0}
    - target: {fileID: 1740649138821246, guid: da995e896c3e3461c93735cde2c063b9, type: 2}
      propertyPath: m_Name
      value: TimedSpawner (1)
      objectReference: {fileID: 0}
    m_RemovedComponents: []
  m_ParentPrefab: {fileID: 100100000, guid: da995e896c3e3461c93735cde2c063b9, type: 2}
  m_IsPrefabParent: 0
